{
    "id": "ed053cee-56a8-4c20-b9d6-bd5d7657da02",
    "name": "api_v1_actions_workspaces_b51b89a10e5845189a6fea8e96dba226_execution_collectlabelelements",
    "request": {
        "url": "/api/v1/actions/workspaces/b51b89a10e5845189a6fea8e96dba226/execution/collectLabelElements?offset=6&limit=2",
        "method": "POST",
        "headers": {
            "Accept": {
                "equalTo": "application/json, text/plain, */*"
            },
            "Content-Type": {
                "equalTo": "application/json",
                "caseInsensitive": true
            }
        },
        "bodyPatterns": [
            {
                "equalToJson": "{\"label\":\"attr.f_account.account\"}",
                "ignoreArrayOrder": false,
                "ignoreExtraElements": false
            }
        ]
    },
    "response": {
        "status": 200,
        "body": "{\"primaryLabel\":{\"id\":\"attr.f_account.account\",\"type\":\"label\"},\"elements\":[{\"title\":\"1-800 We Answer\",\"primaryTitle\":\"1-800 We Answer\"},{\"title\":\"1-888-OhioComp\",\"primaryTitle\":\"1-888-OhioComp\"}],\"paging\":{\"total\":4846,\"count\":2,\"offset\":6,\"next\":\"https://staging.anywhere.gooddata.com/api/v1/actions/workspaces/b51b89a10e5845189a6fea8e96dba226/execution/collectLabelElements?limit=2&offset=8\"}}",
        "headers": {
            "X-Content-Type-Options": "nosniff",
            "Pragma": "no-cache",
            "Referrer-Policy": "no-referrer",
            "Strict-Transport-Security": "max-age=31536000; includeSubDomains",
            "Cache-Control": "no-cache, no-store, max-age=0, must-revalidate",
            "Permission-Policy": "geolocation 'none'; midi 'none'; sync-xhr 'none'; microphone 'none'; camera 'none'; magnetometer 'none'; gyroscope 'none'; fullscreen 'none'; payment 'none';",
            "Vary": ["Origin", "Access-Control-Request-Method", "Access-Control-Request-Headers"],
            "Expires": "0",
            "X-XSS-Protection": "1 ; mode=block",
            "Content-Type": "application/json"
        }
    },
    "uuid": "ed053cee-56a8-4c20-b9d6-bd5d7657da02",
    "persistent": true,
    "insertionIndex": 10
}
