{
    "id": "ec34128b-2e34-4a24-95d9-f5c78fbbcb21",
    "name": "api_v1_actions_workspaces_9c71fe9a4fc944d7b7886c4d05ce0cf3_execution_collectlabelelements",
    "request": {
        "urlPath": "/api/v1/actions/workspaces/9c71fe9a4fc944d7b7886c4d05ce0cf3/execution/collectLabelElements",
        "method": "POST",
        "headers": {
            "Accept": {
                "equalTo": "application/json, text/plain, */*"
            },
            "Content-Type": {
                "equalTo": "application/json",
                "caseInsensitive": true
            }
        },
        "queryParameters": {
            "offset": {
                "hasExactly": [
                    {
                        "equalTo": "0"
                    }
                ]
            },
            "limit": {
                "hasExactly": [
                    {
                        "equalTo": "2"
                    }
                ]
            }
        },
        "bodyPatterns": [
            {
                "equalToJson": "{\"label\":\"attr.f_account.account\"}",
                "ignoreArrayOrder": false,
                "ignoreExtraElements": false
            }
        ]
    },
    "response": {
        "status": 200,
        "body": "{\"primaryLabel\":{\"id\":\"attr.f_account.account\",\"type\":\"label\"},\"elements\":[{\"title\":\"(add)ventures\",\"primaryTitle\":\"(add)ventures\"},{\"title\":\"(blank)\",\"primaryTitle\":\"(blank)\"}],\"paging\":{\"total\":4846,\"count\":2,\"offset\":0,\"next\":\"https://staging.dev-latest.stg11.panther.intgdc.com/api/v1/actions/workspaces/9c71fe9a4fc944d7b7886c4d05ce0cf3/execution/collectLabelElements?limit=2&offset=2\"},\"cacheId\":\"d02321c5a4cea299fe2e9a8b61588966\"}",
        "headers": {
            "X-Gdc-Trace-Id": "1d3016c4791c03f44317ad7bd7f2ff25",
            "Referrer-Policy": "no-referrer",
            "Strict-Transport-Security": "max-age=31536000; includeSubDomains; preload",
            "Cache-Control": "no-cache, no-store, max-age=0, must-revalidate",
            "X-Content-Type-Options": "nosniff",
            "X-Xss-Protection": "1; mode=block",
            "Vary": [
                "Accept-Encoding",
                "Origin",
                "Access-Control-Request-Method",
                "Access-Control-Request-Headers"
            ],
            "Pragma": "no-cache",
            "Expires": "0",
            "Content-Type": "application/json"
        }
    },
    "uuid": "ec34128b-2e34-4a24-95d9-f5c78fbbcb21",
    "persistent": true,
    "insertionIndex": 28
}
