{
    "id": "285518e6-1cbf-4693-9f95-a28e0645b289",
    "name": "api_v1_actions_workspaces_547db92f29ef494ca992331cda27a869_execution_collectlabelelements",
    "request": {
        "url": "/api/v1/actions/workspaces/547db92f29ef494ca992331cda27a869/execution/collectLabelElements?offset=6&limit=2",
        "method": "POST",
        "headers": {
            "Accept": {
                "equalTo": "application/json, text/plain, */*"
            },
            "Content-Type": {
                "equalTo": "application/json",
                "caseInsensitive": true
            }
        },
        "bodyPatterns": [
            {
                "equalToJson": "{\"label\":\"attr.f_account.account\",\"cacheId\":\"3abb2e34186b0166c0439924328e117e\"}",
                "ignoreArrayOrder": false,
                "ignoreExtraElements": false
            }
        ]
    },
    "response": {
        "status": 200,
        "body": "{\"primaryLabel\":{\"id\":\"attr.f_account.account\",\"type\":\"label\"},\"elements\":[{\"title\":\"1-800 We Answer\",\"primaryTitle\":\"1-800 We Answer\"},{\"title\":\"1-888-OhioComp\",\"primaryTitle\":\"1-888-OhioComp\"}],\"paging\":{\"total\":4846,\"count\":2,\"offset\":6,\"next\":\"https://staging.dev-latest.stg11.panther.intgdc.com/api/v1/actions/workspaces/547db92f29ef494ca992331cda27a869/execution/collectLabelElements?limit=2&offset=8\"},\"cacheId\":\"3abb2e34186b0166c0439924328e117e\"}",
        "headers": {
            "X-Content-Type-Options": "nosniff",
            "Pragma": "no-cache",
            "Referrer-Policy": "no-referrer",
            "Strict-Transport-Security": "max-age=63072000; includeSubDomains",
            "Cache-Control": "no-cache, no-store, max-age=0, must-revalidate",
            "Vary": ["Origin", "Access-Control-Request-Method", "Access-Control-Request-Headers"],
            "Expires": "0",
            "X-XSS-Protection": "1 ; mode=block",
            "Content-Type": "application/json"
        }
    },
    "uuid": "285518e6-1cbf-4693-9f95-a28e0645b289",
    "persistent": true,
    "insertionIndex": 10
}
