{
    "id": "6c9eb44a-d110-42d4-93d9-a121cd1d4500",
    "name": "api_actions_workspaces_4dc4e033e611421791adea58d34d958c_execution_collectlabelelements",
    "request": {
        "url": "/api/actions/workspaces/4dc4e033e611421791adea58d34d958c/execution/collectLabelElements?offset=0&limit=20",
        "method": "POST",
        "headers": {
            "Accept": {
                "equalTo": "application/json, text/plain, */*"
            },
            "Content-Type": {
                "equalTo": "application/json",
                "caseInsensitive": true
            }
        },
        "bodyPatterns": [
            {
                "equalToJson": "{\"label\":\"f_account.id\"}",
                "ignoreArrayOrder": false,
                "ignoreExtraElements": false
            }
        ]
    },
    "response": {
        "status": 200,
        "body": "{\"primaryLabel\":{\"id\":\"f_account.id\",\"type\":\"label\"},\"elements\":[{\"primaryTitle\":\"224\",\"title\":\"224\"},{\"primaryTitle\":\"38\",\"title\":\"38\"},{\"primaryTitle\":\"545\",\"title\":\"545\"},{\"primaryTitle\":\"552\",\"title\":\"552\"},{\"primaryTitle\":\"78\",\"title\":\"78\"},{\"primaryTitle\":\"955129\",\"title\":\"955129\"},{\"primaryTitle\":\"955131\",\"title\":\"955131\"},{\"primaryTitle\":\"955133\",\"title\":\"955133\"},{\"primaryTitle\":\"955139\",\"title\":\"955139\"},{\"primaryTitle\":\"955141\",\"title\":\"955141\"},{\"primaryTitle\":\"955143\",\"title\":\"955143\"},{\"primaryTitle\":\"955145\",\"title\":\"955145\"},{\"primaryTitle\":\"955147\",\"title\":\"955147\"},{\"primaryTitle\":\"955153\",\"title\":\"955153\"},{\"primaryTitle\":\"955155\",\"title\":\"955155\"},{\"primaryTitle\":\"955157\",\"title\":\"955157\"},{\"primaryTitle\":\"955159\",\"title\":\"955159\"},{\"primaryTitle\":\"955163\",\"title\":\"955163\"},{\"primaryTitle\":\"955165\",\"title\":\"955165\"},{\"primaryTitle\":\"955167\",\"title\":\"955167\"}],\"paging\":{\"total\":4846,\"count\":20,\"offset\":0,\"next\":\"https://staging.anywhere.gooddata.com/api/actions/workspaces/4dc4e033e611421791adea58d34d958c/execution/collectLabelElements?limit=20&offset=20\"}}",
        "headers": {
            "Cache-Control": "no-cache, no-store, max-age=0, must-revalidate",
            "Content-Security-Policy": "default-src 'self'; script-src 'self' 'unsafe-inline' 'unsafe-eval' matomo.anywhere.gooddata.com connectors.tableau.com gdc-dev-dashboard-plugins.s3.amazonaws.com; img-src 'self' data: blob: www.gooddata.com gdc-dev-dashboard-plugins.s3.amazonaws.com; style-src 'self' 'unsafe-inline' fonts.googleapis.com gdc-dev-dashboard-plugins.s3.amazonaws.com; font-src 'self' data: fonts.gstatic.com at.alicdn.com gdc-dev-dashboard-plugins.s3.amazonaws.com; frame-src 'self'; object-src 'none'; worker-src 'self' blob:; child-src blob:; connect-src 'self' *.tiles.mapbox.com api.mapbox.com events.mapbox.com matomo.anywhere.gooddata.com *.okta.com;",
            "Content-Type": "application/json",
            "Date": "Thu, 17 Feb 2022 14:29:28 GMT",
            "Expires": "0",
            "Permission-Policy": "geolocation 'none'; midi 'none'; sync-xhr 'none'; microphone 'none'; camera 'none'; magnetometer 'none'; gyroscope 'none'; fullscreen 'none'; payment 'none';",
            "Pragma": "no-cache",
            "Referrer-Policy": "no-referrer",
            "Set-Cookie": "SPRING_REDIRECT_URI=; Path=/; Max-Age=0; Expires=Thu, 01 Jan 1970 00:00:00 GMT; Secure; HttpOnly; SameSite=None",
            "Strict-Transport-Security": "max-age=31536000; includeSubDomains",
            "Vary": [
                "Accept-Encoding",
                "Origin",
                "Access-Control-Request-Method",
                "Access-Control-Request-Headers"
            ],
            "X-Content-Type-Options": "nosniff",
            "X-GDC-TRACE-ID": "7300ab6db16c9761",
            "X-XSS-Protection": "1 ; mode=block"
        }
    },
    "uuid": "6c9eb44a-d110-42d4-93d9-a121cd1d4500",
    "persistent": true,
    "insertionIndex": 7
}
