{
    "id": "bcd5f2bb-e77a-4d4c-8788-3841025b2295",
    "name": "api_v1_actions_workspaces_9c71fe9a4fc944d7b7886c4d05ce0cf3_execution_collectlabelelements",
    "request": {
        "urlPath": "/api/v1/actions/workspaces/9c71fe9a4fc944d7b7886c4d05ce0cf3/execution/collectLabelElements",
        "method": "POST",
        "headers": {
            "Accept": {
                "equalTo": "application/json, text/plain, */*"
            },
            "Content-Type": {
                "equalTo": "application/json",
                "caseInsensitive": true
            }
        },
        "queryParameters": {
            "offset": {
                "hasExactly": [
                    {
                        "equalTo": "0"
                    }
                ]
            },
            "limit": {
                "hasExactly": [
                    {
                        "equalTo": "20"
                    }
                ]
            }
        },
        "bodyPatterns": [
            {
                "equalToJson": "{\"label\":\"f_account.id\"}",
                "ignoreArrayOrder": false,
                "ignoreExtraElements": false
            }
        ]
    },
    "response": {
        "status": 200,
        "body": "{\"primaryLabel\":{\"id\":\"f_account.id\",\"type\":\"label\"},\"elements\":[{\"title\":\"38\",\"primaryTitle\":\"38\"},{\"title\":\"78\",\"primaryTitle\":\"78\"},{\"title\":\"224\",\"primaryTitle\":\"224\"},{\"title\":\"545\",\"primaryTitle\":\"545\"},{\"title\":\"552\",\"primaryTitle\":\"552\"},{\"title\":\"955129\",\"primaryTitle\":\"955129\"},{\"title\":\"955131\",\"primaryTitle\":\"955131\"},{\"title\":\"955133\",\"primaryTitle\":\"955133\"},{\"title\":\"955139\",\"primaryTitle\":\"955139\"},{\"title\":\"955141\",\"primaryTitle\":\"955141\"},{\"title\":\"955143\",\"primaryTitle\":\"955143\"},{\"title\":\"955145\",\"primaryTitle\":\"955145\"},{\"title\":\"955147\",\"primaryTitle\":\"955147\"},{\"title\":\"955153\",\"primaryTitle\":\"955153\"},{\"title\":\"955155\",\"primaryTitle\":\"955155\"},{\"title\":\"955157\",\"primaryTitle\":\"955157\"},{\"title\":\"955159\",\"primaryTitle\":\"955159\"},{\"title\":\"955163\",\"primaryTitle\":\"955163\"},{\"title\":\"955165\",\"primaryTitle\":\"955165\"},{\"title\":\"955167\",\"primaryTitle\":\"955167\"}],\"paging\":{\"total\":4846,\"count\":20,\"offset\":0,\"next\":\"https://staging.dev-latest.stg11.panther.intgdc.com/api/v1/actions/workspaces/9c71fe9a4fc944d7b7886c4d05ce0cf3/execution/collectLabelElements?limit=20&offset=20\"},\"cacheId\":\"9bae8e6906dbf013a4a246d2b360760d\"}",
        "headers": {
            "Referrer-Policy": "no-referrer",
            "Strict-Transport-Security": "max-age=63072000; includeSubDomains",
            "Cache-Control": "no-cache, no-store, max-age=0, must-revalidate",
            "X-Content-Type-Options": "nosniff",
            "Vary": [
                "Accept-Encoding",
                "Origin",
                "Access-Control-Request-Method",
                "Access-Control-Request-Headers"
            ],
            "Expires": "0",
            "Pragma": "no-cache",
            "X-XSS-Protection": "0",
            "Content-Type": "application/json"
        }
    },
    "uuid": "bcd5f2bb-e77a-4d4c-8788-3841025b2295",
    "persistent": true,
    "insertionIndex": 15
}
