{
    "id": "55a283af-ef51-4447-9db0-b4a91c9d17ee",
    "name": "api_v1_actions_workspaces_4dc4e033e611421791adea58d34d958c_execution_collectlabelelements",
    "request": {
        "url": "/api/v1/actions/workspaces/4dc4e033e611421791adea58d34d958c/execution/collectLabelElements?offset=0&limit=20",
        "method": "POST",
        "headers": {
            "Accept": {
                "equalTo": "application/json, text/plain, */*"
            },
            "Content-Type": {
                "equalTo": "application/json",
                "caseInsensitive": true
            }
        },
        "bodyPatterns": [
            {
                "equalToJson": "{\"label\":\"f_account.id\"}",
                "ignoreArrayOrder": false,
                "ignoreExtraElements": false
            }
        ]
    },
    "response": {
        "status": 200,
        "body": "{\"primaryLabel\":{\"id\":\"f_account.id\",\"type\":\"label\"},\"elements\":[{\"title\":\"38\",\"primaryTitle\":\"38\"},{\"title\":\"78\",\"primaryTitle\":\"78\"},{\"title\":\"224\",\"primaryTitle\":\"224\"},{\"title\":\"545\",\"primaryTitle\":\"545\"},{\"title\":\"552\",\"primaryTitle\":\"552\"},{\"title\":\"955129\",\"primaryTitle\":\"955129\"},{\"title\":\"955131\",\"primaryTitle\":\"955131\"},{\"title\":\"955133\",\"primaryTitle\":\"955133\"},{\"title\":\"955139\",\"primaryTitle\":\"955139\"},{\"title\":\"955141\",\"primaryTitle\":\"955141\"},{\"title\":\"955143\",\"primaryTitle\":\"955143\"},{\"title\":\"955145\",\"primaryTitle\":\"955145\"},{\"title\":\"955147\",\"primaryTitle\":\"955147\"},{\"title\":\"955153\",\"primaryTitle\":\"955153\"},{\"title\":\"955155\",\"primaryTitle\":\"955155\"},{\"title\":\"955157\",\"primaryTitle\":\"955157\"},{\"title\":\"955159\",\"primaryTitle\":\"955159\"},{\"title\":\"955163\",\"primaryTitle\":\"955163\"},{\"title\":\"955165\",\"primaryTitle\":\"955165\"},{\"title\":\"955167\",\"primaryTitle\":\"955167\"}],\"paging\":{\"total\":4846,\"count\":20,\"offset\":0,\"next\":\"https://staging.anywhere.gooddata.com/api/v1/actions/workspaces/4dc4e033e611421791adea58d34d958c/execution/collectLabelElements?limit=20&offset=20\"}}",
        "headers": {
            "Date": "Mon, 03 Oct 2022 14:20:50 GMT",
            "Content-Type": "application/json",
            "Vary": ["Origin", "Access-Control-Request-Method", "Access-Control-Request-Headers"],
            "X-GDC-TRACE-ID": "09d6d7d89b345993",
            "Cache-Control": "no-cache, no-store, max-age=0, must-revalidate",
            "Pragma": "no-cache",
            "Expires": "0",
            "X-Content-Type-Options": "nosniff",
            "Strict-Transport-Security": "max-age=31536000; includeSubDomains",
            "X-XSS-Protection": "1 ; mode=block",
            "Referrer-Policy": "no-referrer",
            "Set-Cookie": "SPRING_REDIRECT_URI=; Path=/; Max-Age=0; Expires=Thu, 01 Jan 1970 00:00:00 GMT; Secure; HttpOnly; SameSite=None",
            "Permission-Policy": "geolocation 'none'; midi 'none'; sync-xhr 'none'; microphone 'none'; camera 'none'; magnetometer 'none'; gyroscope 'none'; fullscreen 'none'; payment 'none';"
        }
    },
    "uuid": "55a283af-ef51-4447-9db0-b4a91c9d17ee",
    "persistent": true,
    "insertionIndex": 8
}
