{
    "id": "e5ba5645-1c81-4a55-8a2e-8f5f53789d83",
    "name": "api_v1_actions_workspaces_2b7da2afb0d34f4397481c4d2a2d50b0_execution_collectlabelelements",
    "request": {
        "url": "/api/v1/actions/workspaces/2b7da2afb0d34f4397481c4d2a2d50b0/execution/collectLabelElements?offset=6&limit=2",
        "method": "POST",
        "headers": {
            "Accept": {
                "equalTo": "application/json, text/plain, */*"
            },
            "Content-Type": {
                "equalTo": "application/json",
                "caseInsensitive": true
            }
        },
        "bodyPatterns": [
            {
                "equalToJson": "{\"label\":\"attr.f_account.account\"}",
                "ignoreArrayOrder": false,
                "ignoreExtraElements": false
            }
        ]
    },
    "response": {
        "status": 200,
        "body": "{\"primaryLabel\":{\"id\":\"attr.f_account.account\",\"type\":\"label\"},\"elements\":[{\"title\":\"1-800 We Answer\",\"primaryTitle\":\"1-800 We Answer\"},{\"title\":\"1-888-OhioComp\",\"primaryTitle\":\"1-888-OhioComp\"}],\"paging\":{\"total\":4846,\"count\":2,\"offset\":6,\"next\":\"https://staging.anywhere.gooddata.com/api/v1/actions/workspaces/2b7da2afb0d34f4397481c4d2a2d50b0/execution/collectLabelElements?limit=2&offset=8\"}}",
        "headers": {
            "Date": "Mon, 27 Mar 2023 09:33:30 GMT",
            "Content-Type": "application/json",
            "Vary": [
                "Accept-Encoding",
                "Origin",
                "Access-Control-Request-Method",
                "Access-Control-Request-Headers"
            ],
            "X-GDC-TRACE-ID": "58e6825deb3a080d",
            "Cache-Control": "no-cache, no-store, max-age=0, must-revalidate",
            "Pragma": "no-cache",
            "Expires": "0",
            "X-Content-Type-Options": "nosniff",
            "Strict-Transport-Security": "max-age=31536000; includeSubDomains",
            "X-XSS-Protection": "1 ; mode=block",
            "Referrer-Policy": "no-referrer",
            "Set-Cookie": "SPRING_REDIRECT_URI=; Path=/; Max-Age=0; Expires=Thu, 01 Jan 1970 00:00:00 GMT; Secure; HttpOnly; SameSite=None",
            "Permission-Policy": "geolocation 'none'; midi 'none'; sync-xhr 'none'; microphone 'none'; camera 'none'; magnetometer 'none'; gyroscope 'none'; fullscreen 'none'; payment 'none';"
        }
    },
    "uuid": "e5ba5645-1c81-4a55-8a2e-8f5f53789d83",
    "persistent": true,
    "insertionIndex": 5
}
