{
    "id": "70a61b8c-f40f-4675-8842-2f7afb588ff0",
    "name": "api_v1_actions_workspaces_00d48e50c5e0442abc2181a7afd0f66b_execution_collectlabelelements",
    "request": {
        "url": "/api/v1/actions/workspaces/00d48e50c5e0442abc2181a7afd0f66b/execution/collectLabelElements?offset=0&limit=20",
        "method": "POST",
        "headers": {
            "Accept": {
                "equalTo": "application/json, text/plain, */*"
            },
            "Content-Type": {
                "equalTo": "application/json",
                "caseInsensitive": true
            }
        },
        "bodyPatterns": [
            {
                "equalToJson": "{\"label\":\"f_account.id\"}",
                "ignoreArrayOrder": false,
                "ignoreExtraElements": false
            }
        ]
    },
    "response": {
        "status": 200,
        "body": "{\"primaryLabel\":{\"id\":\"f_account.id\",\"type\":\"label\"},\"elements\":[{\"title\":\"38\",\"primaryTitle\":\"38\"},{\"title\":\"78\",\"primaryTitle\":\"78\"},{\"title\":\"224\",\"primaryTitle\":\"224\"},{\"title\":\"545\",\"primaryTitle\":\"545\"},{\"title\":\"552\",\"primaryTitle\":\"552\"},{\"title\":\"955129\",\"primaryTitle\":\"955129\"},{\"title\":\"955131\",\"primaryTitle\":\"955131\"},{\"title\":\"955133\",\"primaryTitle\":\"955133\"},{\"title\":\"955139\",\"primaryTitle\":\"955139\"},{\"title\":\"955141\",\"primaryTitle\":\"955141\"},{\"title\":\"955143\",\"primaryTitle\":\"955143\"},{\"title\":\"955145\",\"primaryTitle\":\"955145\"},{\"title\":\"955147\",\"primaryTitle\":\"955147\"},{\"title\":\"955153\",\"primaryTitle\":\"955153\"},{\"title\":\"955155\",\"primaryTitle\":\"955155\"},{\"title\":\"955157\",\"primaryTitle\":\"955157\"},{\"title\":\"955159\",\"primaryTitle\":\"955159\"},{\"title\":\"955163\",\"primaryTitle\":\"955163\"},{\"title\":\"955165\",\"primaryTitle\":\"955165\"},{\"title\":\"955167\",\"primaryTitle\":\"955167\"}],\"paging\":{\"total\":4846,\"count\":20,\"offset\":0,\"next\":\"https://staging.anywhere.gooddata.com/api/v1/actions/workspaces/00d48e50c5e0442abc2181a7afd0f66b/execution/collectLabelElements?limit=20&offset=20\"}}",
        "headers": {
            "X-Content-Type-Options": "nosniff",
            "Pragma": "no-cache",
            "Referrer-Policy": "no-referrer",
            "Strict-Transport-Security": "max-age=31536000; includeSubDomains",
            "Cache-Control": "no-cache, no-store, max-age=0, must-revalidate",
            "Permission-Policy": "geolocation 'none'; midi 'none'; sync-xhr 'none'; microphone 'none'; camera 'none'; magnetometer 'none'; gyroscope 'none'; fullscreen 'none'; payment 'none';",
            "Vary": ["Origin", "Access-Control-Request-Method", "Access-Control-Request-Headers"],
            "Expires": "0",
            "X-XSS-Protection": "1 ; mode=block",
            "Content-Type": "application/json"
        }
    },
    "uuid": "70a61b8c-f40f-4675-8842-2f7afb588ff0",
    "persistent": true,
    "insertionIndex": 5
}
