{
    "id": "b2eb97e4-dcef-4015-9029-91b5e59ddcf9",
    "name": "api_v1_actions_workspaces_f15bcbc5bcd04b8b8093c70a1a479c35_execution_collectlabelelements",
    "request": {
        "url": "/api/v1/actions/workspaces/f15bcbc5bcd04b8b8093c70a1a479c35/execution/collectLabelElements?offset=0&limit=2",
        "method": "POST",
        "headers": {
            "Accept": {
                "equalTo": "application/json, text/plain, */*"
            },
            "Content-Type": {
                "equalTo": "application/json",
                "caseInsensitive": true
            }
        },
        "bodyPatterns": [
            {
                "equalToJson": "{\"label\":\"attr.f_account.account\"}",
                "ignoreArrayOrder": false,
                "ignoreExtraElements": false
            }
        ]
    },
    "response": {
        "status": 200,
        "body": "{\"primaryLabel\":{\"id\":\"attr.f_account.account\",\"type\":\"label\"},\"elements\":[{\"title\":\"(add)ventures\",\"primaryTitle\":\"(add)ventures\"},{\"title\":\"(blank)\",\"primaryTitle\":\"(blank)\"}],\"paging\":{\"total\":4846,\"count\":2,\"offset\":0,\"next\":\"https://staging.dev-latest.stg11.panther.intgdc.com/api/v1/actions/workspaces/f15bcbc5bcd04b8b8093c70a1a479c35/execution/collectLabelElements?limit=2&offset=2\"},\"cacheId\":\"1da991a20231f8861856e4762c7bc166\"}",
        "headers": {
            "X-Content-Type-Options": "nosniff",
            "Pragma": "no-cache",
            "Referrer-Policy": "no-referrer",
            "Strict-Transport-Security": "max-age=63072000; includeSubDomains",
            "Cache-Control": "no-cache, no-store, max-age=0, must-revalidate",
            "Vary": ["Origin", "Access-Control-Request-Method", "Access-Control-Request-Headers"],
            "Expires": "0",
            "X-XSS-Protection": "1 ; mode=block",
            "Content-Type": "application/json"
        }
    },
    "uuid": "b2eb97e4-dcef-4015-9029-91b5e59ddcf9",
    "persistent": true,
    "insertionIndex": 6
}
