{
    "id": "9628da17-817f-4a15-928f-b8171313b9ad",
    "name": "api_v1_actions_workspaces_ef5b548074ed4e9cbbb267caea8a9926_execution_collectlabelelements",
    "request": {
        "url": "/api/v1/actions/workspaces/ef5b548074ed4e9cbbb267caea8a9926/execution/collectLabelElements?offset=0&limit=2",
        "method": "POST",
        "headers": {
            "Accept": {
                "equalTo": "application/json, text/plain, */*"
            },
            "Content-Type": {
                "equalTo": "application/json",
                "caseInsensitive": true
            }
        },
        "bodyPatterns": [
            {
                "equalToJson": "{\"label\":\"attr.f_account.account\"}",
                "ignoreArrayOrder": false,
                "ignoreExtraElements": false
            }
        ]
    },
    "response": {
        "status": 200,
        "body": "{\"primaryLabel\":{\"id\":\"attr.f_account.account\",\"type\":\"label\"},\"elements\":[{\"title\":\"(add)ventures\",\"primaryTitle\":\"(add)ventures\"},{\"title\":\"(blank)\",\"primaryTitle\":\"(blank)\"}],\"paging\":{\"total\":4846,\"count\":2,\"offset\":0,\"next\":\"https://staging.dev-latest.stg11.panther.intgdc.com/api/v1/actions/workspaces/ef5b548074ed4e9cbbb267caea8a9926/execution/collectLabelElements?limit=2&offset=2\"},\"cacheId\":\"b491325bb1fdfe5c7a355efb32f6e2b1\"}",
        "headers": {
            "X-Content-Type-Options": "nosniff",
            "Pragma": "no-cache",
            "Referrer-Policy": "no-referrer",
            "Strict-Transport-Security": "max-age=63072000; includeSubDomains",
            "Cache-Control": "no-cache, no-store, max-age=0, must-revalidate",
            "Vary": ["Origin", "Access-Control-Request-Method", "Access-Control-Request-Headers"],
            "Expires": "0",
            "X-XSS-Protection": "1; mode=block",
            "Content-Type": "application/json"
        }
    },
    "uuid": "9628da17-817f-4a15-928f-b8171313b9ad",
    "persistent": true,
    "insertionIndex": 9
}
