{
    "id": "07ab489a-7a91-4e4e-99a9-d3c3cec525a8",
    "name": "api_v1_actions_workspaces_f15bcbc5bcd04b8b8093c70a1a479c35_execution_collectlabelelements",
    "request": {
        "url": "/api/v1/actions/workspaces/f15bcbc5bcd04b8b8093c70a1a479c35/execution/collectLabelElements?offset=6&limit=2",
        "method": "POST",
        "headers": {
            "Accept": {
                "equalTo": "application/json, text/plain, */*"
            },
            "Content-Type": {
                "equalTo": "application/json",
                "caseInsensitive": true
            }
        },
        "bodyPatterns": [
            {
                "equalToJson": "{\"label\":\"attr.f_account.account\",\"cacheId\":\"1da991a20231f8861856e4762c7bc166\"}",
                "ignoreArrayOrder": false,
                "ignoreExtraElements": false
            }
        ]
    },
    "response": {
        "status": 200,
        "body": "{\"primaryLabel\":{\"id\":\"attr.f_account.account\",\"type\":\"label\"},\"elements\":[{\"title\":\"1-800 We Answer\",\"primaryTitle\":\"1-800 We Answer\"},{\"title\":\"1-888-OhioComp\",\"primaryTitle\":\"1-888-OhioComp\"}],\"paging\":{\"total\":4846,\"count\":2,\"offset\":6,\"next\":\"https://staging.dev-latest.stg11.panther.intgdc.com/api/v1/actions/workspaces/f15bcbc5bcd04b8b8093c70a1a479c35/execution/collectLabelElements?limit=2&offset=8\"},\"cacheId\":\"1da991a20231f8861856e4762c7bc166\"}",
        "headers": {
            "X-Content-Type-Options": "nosniff",
            "Pragma": "no-cache",
            "Referrer-Policy": "no-referrer",
            "Strict-Transport-Security": "max-age=63072000; includeSubDomains",
            "Cache-Control": "no-cache, no-store, max-age=0, must-revalidate",
            "Vary": ["Origin", "Access-Control-Request-Method", "Access-Control-Request-Headers"],
            "Expires": "0",
            "X-XSS-Protection": "1 ; mode=block",
            "Content-Type": "application/json"
        }
    },
    "uuid": "07ab489a-7a91-4e4e-99a9-d3c3cec525a8",
    "persistent": true,
    "insertionIndex": 8
}
