{
    "id": "0cad12ae-54e2-4798-ae0b-a2f84eb6ef80",
    "name": "api_v1_actions_workspaces_12f912afa6d648c4953c254807eafd1f_execution_collectlabelelements",
    "request": {
        "url": "/api/v1/actions/workspaces/12f912afa6d648c4953c254807eafd1f/execution/collectLabelElements?offset=6&limit=2",
        "method": "POST",
        "headers": {
            "Accept": {
                "equalTo": "application/json, text/plain, */*"
            },
            "Content-Type": {
                "equalTo": "application/json",
                "caseInsensitive": true
            }
        },
        "bodyPatterns": [
            {
                "equalToJson": "{\"label\":\"attr.f_account.account\",\"cacheId\":\"c9b78d2294cddb2d4b02a7dc69d43b85\"}",
                "ignoreArrayOrder": false,
                "ignoreExtraElements": false
            }
        ]
    },
    "response": {
        "status": 200,
        "body": "{\"primaryLabel\":{\"id\":\"attr.f_account.account\",\"type\":\"label\"},\"elements\":[{\"title\":\"1-800 We Answer\",\"primaryTitle\":\"1-800 We Answer\"},{\"title\":\"1-888-OhioComp\",\"primaryTitle\":\"1-888-OhioComp\"}],\"paging\":{\"total\":4846,\"count\":2,\"offset\":6,\"next\":\"https://staging.dev-latest.stg11.panther.intgdc.com/api/v1/actions/workspaces/12f912afa6d648c4953c254807eafd1f/execution/collectLabelElements?limit=2&offset=8\"},\"cacheId\":\"c9b78d2294cddb2d4b02a7dc69d43b85\"}",
        "headers": {
            "X-Content-Type-Options": "nosniff",
            "Pragma": "no-cache",
            "Referrer-Policy": "no-referrer",
            "Strict-Transport-Security": "max-age=63072000; includeSubDomains",
            "Cache-Control": "no-cache, no-store, max-age=0, must-revalidate",
            "Vary": ["Origin", "Access-Control-Request-Method", "Access-Control-Request-Headers"],
            "Expires": "0",
            "X-XSS-Protection": "1 ; mode=block",
            "Content-Type": "application/json"
        }
    },
    "uuid": "0cad12ae-54e2-4798-ae0b-a2f84eb6ef80",
    "persistent": true,
    "insertionIndex": 9
}
