{
    "id": "6b660b91-7617-4f95-8263-354fd1544465",
    "name": "api_v1_actions_workspaces_9c71fe9a4fc944d7b7886c4d05ce0cf3_execution_collectlabelelements",
    "request": {
        "urlPath": "/api/v1/actions/workspaces/9c71fe9a4fc944d7b7886c4d05ce0cf3/execution/collectLabelElements",
        "method": "POST",
        "headers": {
            "Accept": {
                "equalTo": "application/json, text/plain, */*"
            },
            "Content-Type": {
                "equalTo": "application/json",
                "caseInsensitive": true
            }
        },
        "queryParameters": {
            "offset": {
                "hasExactly": [
                    {
                        "equalTo": "6"
                    }
                ]
            },
            "limit": {
                "hasExactly": [
                    {
                        "equalTo": "2"
                    }
                ]
            }
        },
        "bodyPatterns": [
            {
                "equalToJson": "{\"label\":\"attr.f_account.account\",\"cacheId\":\"d02321c5a4cea299fe2e9a8b61588966\"}",
                "ignoreArrayOrder": false,
                "ignoreExtraElements": false
            }
        ]
    },
    "response": {
        "status": 200,
        "body": "{\"primaryLabel\":{\"id\":\"attr.f_account.account\",\"type\":\"label\"},\"elements\":[{\"title\":\"1-800 We Answer\",\"primaryTitle\":\"1-800 We Answer\"},{\"title\":\"1-888-OhioComp\",\"primaryTitle\":\"1-888-OhioComp\"}],\"paging\":{\"total\":4846,\"count\":2,\"offset\":6,\"next\":\"https://staging.dev-latest.stg11.panther.intgdc.com/api/v1/actions/workspaces/9c71fe9a4fc944d7b7886c4d05ce0cf3/execution/collectLabelElements?limit=2&offset=8\"},\"cacheId\":\"d02321c5a4cea299fe2e9a8b61588966\"}",
        "headers": {
            "X-Gdc-Trace-Id": "b2f3303b64167ae5b531422b93de399a",
            "Referrer-Policy": "no-referrer",
            "Strict-Transport-Security": "max-age=31536000; includeSubDomains; preload",
            "Cache-Control": "no-cache, no-store, max-age=0, must-revalidate",
            "X-Content-Type-Options": "nosniff",
            "X-Xss-Protection": "1; mode=block",
            "Vary": [
                "Accept-Encoding",
                "Origin",
                "Access-Control-Request-Method",
                "Access-Control-Request-Headers"
            ],
            "Pragma": "no-cache",
            "Expires": "0",
            "Content-Type": "application/json"
        }
    },
    "uuid": "6b660b91-7617-4f95-8263-354fd1544465",
    "persistent": true,
    "insertionIndex": 25
}
