{
    "id": "d063cae3-faff-4a5c-a130-d91df5a0f330",
    "name": "api_actions_workspaces_4dc4e033e611421791adea58d34d958c_execution_collectlabelelements",
    "request": {
        "url": "/api/actions/workspaces/4dc4e033e611421791adea58d34d958c/execution/collectLabelElements?offset=6&limit=2",
        "method": "POST",
        "headers": {
            "Accept": {
                "equalTo": "application/json, text/plain, */*"
            },
            "Content-Type": {
                "equalTo": "application/json",
                "caseInsensitive": true
            }
        },
        "bodyPatterns": [
            {
                "equalToJson": "{\"label\":\"label.f_account.account.accountid\"}",
                "ignoreArrayOrder": false,
                "ignoreExtraElements": false
            }
        ]
    },
    "response": {
        "status": 200,
        "body": "{\"primaryLabel\":{\"id\":\"label.f_account.account\",\"type\":\"label\"},\"elements\":[{\"title\":\"1-888-OhioComp\",\"primaryTitle\":\"1-888-OhioComp\"},{\"title\":\"1 Source Consulting\",\"primaryTitle\":\"1 Source Consulting\"}],\"paging\":{\"total\":4846,\"count\":2,\"offset\":6,\"next\":\"https://staging.anywhere.gooddata.com/api/actions/workspaces/4dc4e033e611421791adea58d34d958c/execution/collectLabelElements?limit=2&offset=8\"}}",
        "headers": {
            "Cache-Control": "no-cache, no-store, max-age=0, must-revalidate",
            "Content-Security-Policy": "default-src 'self' *.wistia.com *.wistia.net; script-src 'self' 'unsafe-inline' 'unsafe-eval' *.wistia.com *.wistia.net src.litix.io matomo.anywhere.gooddata.com connectors.tableau.com gdc-dev-dashboard-plugins.s3.amazonaws.com; img-src 'self' data: blob: *.wistia.com *.wistia.net embedwistia-a.akamaihd.net www.gooddata.com gdc-dev-dashboard-plugins.s3.amazonaws.com; style-src 'self' 'unsafe-inline' fonts.googleapis.com gdc-dev-dashboard-plugins.s3.amazonaws.com; font-src 'self' data: *.wistia.com fonts.gstatic.com at.alicdn.com gdc-dev-dashboard-plugins.s3.amazonaws.com; frame-src 'self'; object-src 'none'; worker-src 'self' blob:; child-src blob:; connect-src 'self' *.litix.io *.wistia.com embedwistia-a.akamaihd.net *.tiles.mapbox.com api.mapbox.com events.mapbox.com matomo.anywhere.gooddata.com *.okta.com;",
            "Content-Type": "application/json",
            "Date": "Thu, 12 May 2022 12:30:13 GMT",
            "Expires": "0",
            "Permission-Policy": "geolocation 'none'; midi 'none'; sync-xhr 'none'; microphone 'none'; camera 'none'; magnetometer 'none'; gyroscope 'none'; fullscreen 'none'; payment 'none';",
            "Pragma": "no-cache",
            "Referrer-Policy": "no-referrer",
            "Set-Cookie": "SPRING_REDIRECT_URI=; Path=/; Max-Age=0; Expires=Thu, 01 Jan 1970 00:00:00 GMT; Secure; HttpOnly; SameSite=None",
            "Strict-Transport-Security": "max-age=31536000; includeSubDomains",
            "Vary": [
                "Accept-Encoding",
                "Origin",
                "Access-Control-Request-Method",
                "Access-Control-Request-Headers"
            ],
            "X-Content-Type-Options": "nosniff",
            "X-GDC-TRACE-ID": "e33d70eb8e9624fa",
            "X-XSS-Protection": "1 ; mode=block"
        }
    },
    "uuid": "d063cae3-faff-4a5c-a130-d91df5a0f330",
    "persistent": true,
    "insertionIndex": 5
}
