{
    "primaryLabel": { "id": "attr.f_account.account", "type": "label" },
    "elements": [
        { "title": "(add)ventures", "primaryTitle": "(add)ventures" },
        { "title": "(blank)", "primaryTitle": "(blank)" },
        { "title": "(mt) Media Temple", "primaryTitle": "(mt) Media Temple" },
        { "title": ".decimal", "primaryTitle": ".decimal" },
        { "title": "1 Source Consulting", "primaryTitle": "1 Source Consulting" },
        { "title": "1-800 Postcards", "primaryTitle": "1-800 Postcards" },
        { "title": "1-800 We Answer", "primaryTitle": "1-800 We Answer" },
        { "title": "1-888-OhioComp", "primaryTitle": "1-888-OhioComp" },
        { "title": "1000Bulbs.com", "primaryTitle": "1000Bulbs.com" },
        { "title": "101 Financial", "primaryTitle": "101 Financial" },
        { "title": "123 Exteriors", "primaryTitle": "123 Exteriors" },
        { "title": "14 West", "primaryTitle": "14 West" },
        { "title": "1Source International", "primaryTitle": "1Source International" },
        { "title": "1st Choice Staffing & Consulting", "primaryTitle": "1st Choice Staffing & Consulting" },
        { "title": "1st in Video - Music World", "primaryTitle": "1st in Video - Music World" },
        { "title": "2 Wheel Bikes", "primaryTitle": "2 Wheel Bikes" },
        { "title": "2HB Software Designs", "primaryTitle": "2HB Software Designs" },
        { "title": "352 Media Group", "primaryTitle": "352 Media Group" },
        { "title": "3Degrees", "primaryTitle": "3Degrees" },
        { "title": "3E", "primaryTitle": "3E" },
        { "title": "3balls.com", "primaryTitle": "3balls.com" },
        { "title": "3dCart Shopping Cart Software", "primaryTitle": "3dCart Shopping Cart Software" },
        { "title": "49er Communications", "primaryTitle": "49er Communications" },
        { "title": "4Wall Entertainment", "primaryTitle": "4Wall Entertainment" },
        { "title": "4th Source", "primaryTitle": "4th Source" },
        { "title": "5LINX Enterprises", "primaryTitle": "5LINX Enterprises" },
        { "title": "614 Media Group", "primaryTitle": "614 Media Group" },
        { "title": "6K Systems", "primaryTitle": "6K Systems" },
        { "title": "7 Medical Systems", "primaryTitle": "7 Medical Systems" },
        { "title": "7 Simple Machines", "primaryTitle": "7 Simple Machines" },
        { "title": "7-Eleven", "primaryTitle": "7-Eleven" },
        { "title": "720 Strategies", "primaryTitle": "720 Strategies" },
        { "title": "90octane", "primaryTitle": "90octane" },
        { "title": "919 Marketing", "primaryTitle": "919 Marketing" },
        { "title": "@properties", "primaryTitle": "@properties" },
        { "title": "A Main Hobbies", "primaryTitle": "A Main Hobbies" },
        { "title": "A Place for Mom", "primaryTitle": "A Place for Mom" },
        { "title": "A Squared Group", "primaryTitle": "A Squared Group" },
        { "title": "A White Orchid Wedding", "primaryTitle": "A White Orchid Wedding" },
        { "title": "A&C Plastics", "primaryTitle": "A&C Plastics" },
        {
            "title": "A&P Consulting Transportation Engineers",
            "primaryTitle": "A&P Consulting Transportation Engineers"
        },
        { "title": "A&R Tarpaulins", "primaryTitle": "A&R Tarpaulins" },
        { "title": "A+ Mortgage Services", "primaryTitle": "A+ Mortgage Services" },
        { "title": "A+ Tutor U", "primaryTitle": "A+ Tutor U" },
        { "title": "A-1 Textiles", "primaryTitle": "A-1 Textiles" },
        { "title": "A-Life Medical", "primaryTitle": "A-Life Medical" },
        { "title": "A-T Solutions", "primaryTitle": "A-T Solutions" },
        { "title": "A. Pomerantz & Co.", "primaryTitle": "A. Pomerantz & Co." },
        { "title": "A.B. Data", "primaryTitle": "A.B. Data" },
        { "title": "A.R.M. Solutions", "primaryTitle": "A.R.M. Solutions" },
        { "title": "A1 Pool Parts", "primaryTitle": "A1 Pool Parts" },
        { "title": "A10 Clinical Solutions", "primaryTitle": "A10 Clinical Solutions" },
        { "title": "A10 Networks", "primaryTitle": "A10 Networks" },
        { "title": "AAC Enterprises", "primaryTitle": "AAC Enterprises" },
        { "title": "AArrow Advertising", "primaryTitle": "AArrow Advertising" },
        { "title": "ABBTech Staffing Services", "primaryTitle": "ABBTech Staffing Services" },
        { "title": "ABC Security Service", "primaryTitle": "ABC Security Service" },
        { "title": "ABCOMRents.com", "primaryTitle": "ABCOMRents.com" },
        { "title": "AC Lens", "primaryTitle": "AC Lens" },
        { "title": "ACAI Associates", "primaryTitle": "ACAI Associates" },
        { "title": "ACFN Franchised", "primaryTitle": "ACFN Franchised" },
        { "title": "ACTS", "primaryTitle": "ACTS" },
        { "title": "ADC Integrated Systems", "primaryTitle": "ADC Integrated Systems" },
        { "title": "ADEX Manufacturing Technologies", "primaryTitle": "ADEX Manufacturing Technologies" },
        { "title": "ADG Creative", "primaryTitle": "ADG Creative" },
        { "title": "AEEC", "primaryTitle": "AEEC" },
        { "title": "AEgis Technologies Group", "primaryTitle": "AEgis Technologies Group" },
        { "title": "AGM Container Controls", "primaryTitle": "AGM Container Controls" },
        { "title": "AIMS Power", "primaryTitle": "AIMS Power" },
        { "title": "AIRSIS", "primaryTitle": "AIRSIS" },
        { "title": "AIReS", "primaryTitle": "AIReS" },
        { "title": "AIT Laboratories", "primaryTitle": "AIT Laboratories" },
        { "title": "AJ Riggins", "primaryTitle": "AJ Riggins" },
        { "title": "AK Environmental", "primaryTitle": "AK Environmental" },
        { "title": "AKA Media", "primaryTitle": "AKA Media" },
        { "title": "AKASHA-US", "primaryTitle": "AKASHA-US" },
        { "title": "AKT Enterprises", "primaryTitle": "AKT Enterprises" },
        { "title": "ALaS Consulting", "primaryTitle": "ALaS Consulting" },
        { "title": "AMC Entertainment", "primaryTitle": "AMC Entertainment" },
        { "title": "ANDA Networks", "primaryTitle": "ANDA Networks" },
        { "title": "AOD Software", "primaryTitle": "AOD Software" },
        { "title": "APCO Worldwide", "primaryTitle": "APCO Worldwide" },
        { "title": "APEXteriors", "primaryTitle": "APEXteriors" },
        { "title": "APG", "primaryTitle": "APG" },
        { "title": "APT Research", "primaryTitle": "APT Research" },
        { "title": "AQIWO", "primaryTitle": "AQIWO" },
        { "title": "ARES", "primaryTitle": "ARES" },
        { "title": "ARGI Financial Group", "primaryTitle": "ARGI Financial Group" },
        { "title": "ARHD", "primaryTitle": "ARHD" },
        { "title": "ARK Solutions", "primaryTitle": "ARK Solutions" },
        { "title": "ARRC Technology", "primaryTitle": "ARRC Technology" },
        { "title": "ASAP", "primaryTitle": "ASAP" },
        { "title": "ASAP Towing & Storage", "primaryTitle": "ASAP Towing & Storage" },
        { "title": "ASD", "primaryTitle": "ASD" },
        { "title": "ASE Technology", "primaryTitle": "ASE Technology" },
        { "title": "ASI System Integration", "primaryTitle": "ASI System Integration" },
        { "title": "ASK Staffing", "primaryTitle": "ASK Staffing" },
        { "title": "ASP Pool and Spa", "primaryTitle": "ASP Pool and Spa" },
        { "title": "AT Conference", "primaryTitle": "AT Conference" },
        { "title": "AT HOME PERSONAL CARE", "primaryTitle": "AT HOME PERSONAL CARE" }
    ],
    "paging": {
        "total": 4846,
        "count": 100,
        "offset": 0,
        "next": "https://staging.anywhere.gooddata.com/api/v1/actions/workspaces/00d48e50c5e0442abc2181a7afd0f66b/execution/collectLabelElements?limit=100&offset=100"
    }
}
