{
    "primaryLabel": { "id": "label.f_account.account", "type": "label" },
    "elements": [
        { "primaryTitle": "(add)ventures", "title": "(add)ventures" },
        { "primaryTitle": "(blank)", "title": "(blank)" },
        { "primaryTitle": "(mt) Media Temple", "title": "(mt) Media Temple" },
        { "primaryTitle": ".decimal", "title": ".decimal" },
        { "primaryTitle": "1 Source Consulting", "title": "1 Source Consulting" },
        { "primaryTitle": "1-800 Postcards", "title": "1-800 Postcards" },
        { "primaryTitle": "1-800 We Answer", "title": "1-800 We Answer" },
        { "primaryTitle": "1-888-OhioComp", "title": "1-888-OhioComp" },
        { "primaryTitle": "1000Bulbs.com", "title": "1000Bulbs.com" },
        { "primaryTitle": "101 Financial", "title": "101 Financial" },
        { "primaryTitle": "123 Exteriors", "title": "123 Exteriors" },
        { "primaryTitle": "14 West", "title": "14 West" },
        { "primaryTitle": "1Source International", "title": "1Source International" },
        { "primaryTitle": "1st Choice Staffing & Consulting", "title": "1st Choice Staffing & Consulting" },
        { "primaryTitle": "1st in Video - Music World", "title": "1st in Video - Music World" },
        { "primaryTitle": "2 Wheel Bikes", "title": "2 Wheel Bikes" },
        { "primaryTitle": "2HB Software Designs", "title": "2HB Software Designs" },
        { "primaryTitle": "352 Media Group", "title": "352 Media Group" },
        { "primaryTitle": "3Degrees", "title": "3Degrees" },
        { "primaryTitle": "3E", "title": "3E" },
        { "primaryTitle": "3balls.com", "title": "3balls.com" },
        { "primaryTitle": "3dCart Shopping Cart Software", "title": "3dCart Shopping Cart Software" },
        { "primaryTitle": "49er Communications", "title": "49er Communications" },
        { "primaryTitle": "4Wall Entertainment", "title": "4Wall Entertainment" },
        { "primaryTitle": "4th Source", "title": "4th Source" },
        { "primaryTitle": "5LINX Enterprises", "title": "5LINX Enterprises" },
        { "primaryTitle": "614 Media Group", "title": "614 Media Group" },
        { "primaryTitle": "6K Systems", "title": "6K Systems" },
        { "primaryTitle": "7 Medical Systems", "title": "7 Medical Systems" },
        { "primaryTitle": "7 Simple Machines", "title": "7 Simple Machines" },
        { "primaryTitle": "7-Eleven", "title": "7-Eleven" },
        { "primaryTitle": "720 Strategies", "title": "720 Strategies" },
        { "primaryTitle": "90octane", "title": "90octane" },
        { "primaryTitle": "919 Marketing", "title": "919 Marketing" },
        { "primaryTitle": "@properties", "title": "@properties" },
        { "primaryTitle": "A Main Hobbies", "title": "A Main Hobbies" },
        { "primaryTitle": "A Place for Mom", "title": "A Place for Mom" },
        { "primaryTitle": "A Squared Group", "title": "A Squared Group" },
        { "primaryTitle": "A White Orchid Wedding", "title": "A White Orchid Wedding" },
        { "primaryTitle": "A&C Plastics", "title": "A&C Plastics" },
        {
            "primaryTitle": "A&P Consulting Transportation Engineers",
            "title": "A&P Consulting Transportation Engineers"
        },
        { "primaryTitle": "A&R Tarpaulins", "title": "A&R Tarpaulins" },
        { "primaryTitle": "A+ Mortgage Services", "title": "A+ Mortgage Services" },
        { "primaryTitle": "A+ Tutor U", "title": "A+ Tutor U" },
        { "primaryTitle": "A-1 Textiles", "title": "A-1 Textiles" },
        { "primaryTitle": "A-Life Medical", "title": "A-Life Medical" },
        { "primaryTitle": "A-T Solutions", "title": "A-T Solutions" },
        { "primaryTitle": "A. Pomerantz & Co.", "title": "A. Pomerantz & Co." },
        { "primaryTitle": "A.B. Data", "title": "A.B. Data" },
        { "primaryTitle": "A.R.M. Solutions", "title": "A.R.M. Solutions" },
        { "primaryTitle": "A1 Pool Parts", "title": "A1 Pool Parts" },
        { "primaryTitle": "A10 Clinical Solutions", "title": "A10 Clinical Solutions" },
        { "primaryTitle": "A10 Networks", "title": "A10 Networks" },
        { "primaryTitle": "AAC Enterprises", "title": "AAC Enterprises" },
        { "primaryTitle": "AArrow Advertising", "title": "AArrow Advertising" },
        { "primaryTitle": "ABBTech Staffing Services", "title": "ABBTech Staffing Services" },
        { "primaryTitle": "ABC Security Service", "title": "ABC Security Service" },
        { "primaryTitle": "ABCOMRents.com", "title": "ABCOMRents.com" },
        { "primaryTitle": "AC Lens", "title": "AC Lens" },
        { "primaryTitle": "ACAI Associates", "title": "ACAI Associates" },
        { "primaryTitle": "ACFN Franchised", "title": "ACFN Franchised" },
        { "primaryTitle": "ACTS", "title": "ACTS" },
        { "primaryTitle": "ADC Integrated Systems", "title": "ADC Integrated Systems" },
        { "primaryTitle": "ADEX Manufacturing Technologies", "title": "ADEX Manufacturing Technologies" },
        { "primaryTitle": "ADG Creative", "title": "ADG Creative" },
        { "primaryTitle": "AEEC", "title": "AEEC" },
        { "primaryTitle": "AEgis Technologies Group", "title": "AEgis Technologies Group" },
        { "primaryTitle": "AGM Container Controls", "title": "AGM Container Controls" },
        { "primaryTitle": "AIMS Power", "title": "AIMS Power" },
        { "primaryTitle": "AIRSIS", "title": "AIRSIS" },
        { "primaryTitle": "AIReS", "title": "AIReS" },
        { "primaryTitle": "AIT Laboratories", "title": "AIT Laboratories" },
        { "primaryTitle": "AJ Riggins", "title": "AJ Riggins" },
        { "primaryTitle": "AK Environmental", "title": "AK Environmental" },
        { "primaryTitle": "AKA Media", "title": "AKA Media" },
        { "primaryTitle": "AKASHA-US", "title": "AKASHA-US" },
        { "primaryTitle": "AKT Enterprises", "title": "AKT Enterprises" },
        { "primaryTitle": "ALaS Consulting", "title": "ALaS Consulting" },
        { "primaryTitle": "AMC Entertainment", "title": "AMC Entertainment" },
        { "primaryTitle": "ANDA Networks", "title": "ANDA Networks" },
        { "primaryTitle": "AOD Software", "title": "AOD Software" },
        { "primaryTitle": "APCO Worldwide", "title": "APCO Worldwide" },
        { "primaryTitle": "APEXteriors", "title": "APEXteriors" },
        { "primaryTitle": "APG", "title": "APG" },
        { "primaryTitle": "APT Research", "title": "APT Research" },
        { "primaryTitle": "AQIWO", "title": "AQIWO" },
        { "primaryTitle": "ARES", "title": "ARES" },
        { "primaryTitle": "ARGI Financial Group", "title": "ARGI Financial Group" },
        { "primaryTitle": "ARHD", "title": "ARHD" },
        { "primaryTitle": "ARK Solutions", "title": "ARK Solutions" },
        { "primaryTitle": "ARRC Technology", "title": "ARRC Technology" },
        { "primaryTitle": "ASAP", "title": "ASAP" },
        { "primaryTitle": "ASAP Towing & Storage", "title": "ASAP Towing & Storage" },
        { "primaryTitle": "ASD", "title": "ASD" },
        { "primaryTitle": "ASE Technology", "title": "ASE Technology" },
        { "primaryTitle": "ASI System Integration", "title": "ASI System Integration" },
        { "primaryTitle": "ASK Staffing", "title": "ASK Staffing" },
        { "primaryTitle": "ASP Pool and Spa", "title": "ASP Pool and Spa" },
        { "primaryTitle": "AT Conference", "title": "AT Conference" },
        { "primaryTitle": "AT HOME PERSONAL CARE", "title": "AT HOME PERSONAL CARE" }
    ],
    "paging": {
        "total": 4846,
        "count": 100,
        "offset": 0,
        "next": "https://staging.anywhere.gooddata.com/api/actions/workspaces/4dc4e033e611421791adea58d34d958c/execution/collectLabelElements?limit=100&offset=100"
    }
}
