{
    "primaryLabel": { "id": "label.f_account.account", "type": "label" },
    "elements": [
        { "title": "1000Bulbs.com", "primaryTitle": "1000Bulbs.com" },
        { "title": "101 Financial", "primaryTitle": "101 Financial" },
        { "title": "123 Exteriors", "primaryTitle": "123 Exteriors" },
        { "title": "14 West", "primaryTitle": "14 West" },
        { "title": "1-800 Postcards", "primaryTitle": "1-800 Postcards" },
        { "title": "1-800 We Answer", "primaryTitle": "1-800 We Answer" },
        { "title": "1-888-OhioComp", "primaryTitle": "1-888-OhioComp" },
        { "title": "1 Source Consulting", "primaryTitle": "1 Source Consulting" },
        { "title": "1Source International", "primaryTitle": "1Source International" },
        { "title": "1st Choice Staffing & Consulting", "primaryTitle": "1st Choice Staffing & Consulting" },
        { "title": "1st in Video - Music World", "primaryTitle": "1st in Video - Music World" },
        { "title": "2HB Software Designs", "primaryTitle": "2HB Software Designs" },
        { "title": "2 Wheel Bikes", "primaryTitle": "2 Wheel Bikes" },
        { "title": "352 Media Group", "primaryTitle": "352 Media Group" },
        { "title": "3balls.com", "primaryTitle": "3balls.com" },
        { "title": "3dCart Shopping Cart Software", "primaryTitle": "3dCart Shopping Cart Software" },
        { "title": "3Degrees", "primaryTitle": "3Degrees" },
        { "title": "3E", "primaryTitle": "3E" },
        { "title": "49er Communications", "primaryTitle": "49er Communications" },
        { "title": "4th Source", "primaryTitle": "4th Source" },
        { "title": "4Wall Entertainment", "primaryTitle": "4Wall Entertainment" },
        { "title": "5LINX Enterprises", "primaryTitle": "5LINX Enterprises" },
        { "title": "614 Media Group", "primaryTitle": "614 Media Group" },
        { "title": "6K Systems", "primaryTitle": "6K Systems" },
        { "title": "720 Strategies", "primaryTitle": "720 Strategies" },
        { "title": "7-Eleven", "primaryTitle": "7-Eleven" },
        { "title": "7 Medical Systems", "primaryTitle": "7 Medical Systems" },
        { "title": "7 Simple Machines", "primaryTitle": "7 Simple Machines" },
        { "title": "90octane", "primaryTitle": "90octane" },
        { "title": "919 Marketing", "primaryTitle": "919 Marketing" },
        { "title": "A10 Clinical Solutions", "primaryTitle": "A10 Clinical Solutions" },
        { "title": "A10 Networks", "primaryTitle": "A10 Networks" },
        { "title": "A1 Pool Parts", "primaryTitle": "A1 Pool Parts" },
        { "title": "A-1 Textiles", "primaryTitle": "A-1 Textiles" },
        { "title": "AAC Enterprises", "primaryTitle": "AAC Enterprises" },
        { "title": "Aaron Oil Company", "primaryTitle": "Aaron Oil Company" },
        { "title": "Aaron's", "primaryTitle": "Aaron's" },
        { "title": "Aaron's Sales and Lease", "primaryTitle": "Aaron's Sales and Lease" },
        { "title": "Aaron's Sales and Lease Ownership", "primaryTitle": "Aaron's Sales and Lease Ownership" },
        { "title": "Aaron's Sales & Lease Ownership", "primaryTitle": "Aaron's Sales & Lease Ownership" },
        { "title": "AArrow Advertising", "primaryTitle": "AArrow Advertising" },
        { "title": "Aasent Mortgage Corporation", "primaryTitle": "Aasent Mortgage Corporation" },
        { "title": "Abacus 24-7", "primaryTitle": "Abacus 24-7" },
        { "title": "Abacus Plumbing", "primaryTitle": "Abacus Plumbing" },
        { "title": "Abacus Solutions Group", "primaryTitle": "Abacus Solutions Group" },
        { "title": "ABBTech Staffing Services", "primaryTitle": "ABBTech Staffing Services" },
        { "title": "ABCOMRents.com", "primaryTitle": "ABCOMRents.com" },
        { "title": "ABC Security Service", "primaryTitle": "ABC Security Service" },
        { "title": "A.B. Data", "primaryTitle": "A.B. Data" },
        { "title": "Able Equipment Rental", "primaryTitle": "Able Equipment Rental" },
        { "title": "Able Patrol and Guard", "primaryTitle": "Able Patrol and Guard" },
        { "title": "Abraxas", "primaryTitle": "Abraxas" },
        { "title": "Absolute Concrete Construction", "primaryTitle": "Absolute Concrete Construction" },
        { "title": "Abstract Displays", "primaryTitle": "Abstract Displays" },
        { "title": "AcademixDirect", "primaryTitle": "AcademixDirect" },
        { "title": "Acadian Ambulance Service", "primaryTitle": "Acadian Ambulance Service" },
        { "title": "ACAI Associates", "primaryTitle": "ACAI Associates" },
        { "title": "Accelera Solutions", "primaryTitle": "Accelera Solutions" },
        { "title": "Accelerated Financial Solutions", "primaryTitle": "Accelerated Financial Solutions" },
        {
            "title": "Accent Electronic Systems Integrators",
            "primaryTitle": "Accent Electronic Systems Integrators"
        },
        { "title": "Access America Transport", "primaryTitle": "Access America Transport" },
        { "title": "Access Display Group", "primaryTitle": "Access Display Group" },
        { "title": "Access Information Management", "primaryTitle": "Access Information Management" },
        { "title": "Access Insurance Holdings", "primaryTitle": "Access Insurance Holdings" },
        { "title": "Access Technology Solutions", "primaryTitle": "Access Technology Solutions" },
        { "title": "Access Worldwide", "primaryTitle": "Access Worldwide" },
        { "title": "Acclaim Technical Services", "primaryTitle": "Acclaim Technical Services" },
        { "title": "Acclaris", "primaryTitle": "Acclaris" },
        { "title": "Accordent", "primaryTitle": "Accordent" },
        { "title": "Account Control Technology", "primaryTitle": "Account Control Technology" },
        { "title": "Accounting Management Solutions", "primaryTitle": "Accounting Management Solutions" },
        { "title": "AccountNow", "primaryTitle": "AccountNow" },
        { "title": "Accretive Health", "primaryTitle": "Accretive Health" },
        { "title": "AccuCode", "primaryTitle": "AccuCode" },
        { "title": "Accusoft Pegasus", "primaryTitle": "Accusoft Pegasus" },
        { "title": "Accuvant", "primaryTitle": "Accuvant" },
        { "title": "Ace Underwriting Group", "primaryTitle": "Ace Underwriting Group" },
        { "title": "ACFN Franchised", "primaryTitle": "ACFN Franchised" },
        { "title": "Achatz Handmade Pie", "primaryTitle": "Achatz Handmade Pie" },
        { "title": "Achieve3000", "primaryTitle": "Achieve3000" },
        { "title": "AC Lens", "primaryTitle": "AC Lens" },
        { "title": "Acorn Design and Manufacturing", "primaryTitle": "Acorn Design and Manufacturing" },
        { "title": "A&C Plastics", "primaryTitle": "A&C Plastics" },
        { "title": "Acquity Group", "primaryTitle": "Acquity Group" },
        { "title": "Acronis", "primaryTitle": "Acronis" },
        { "title": "Actio", "primaryTitle": "Actio" },
        { "title": "Action Envelope", "primaryTitle": "Action Envelope" },
        { "title": "Action Target", "primaryTitle": "Action Target" },
        { "title": "Active Website", "primaryTitle": "Active Website" },
        { "title": "ACTS", "primaryTitle": "ACTS" },
        { "title": "Acumen Building Enterprise", "primaryTitle": "Acumen Building Enterprise" },
        { "title": "Acxius Strategic Consulting", "primaryTitle": "Acxius Strategic Consulting" },
        { "title": "Adaptik", "primaryTitle": "Adaptik" },
        { "title": "Adaptive Materials", "primaryTitle": "Adaptive Materials" },
        { "title": "Adaptive Planning", "primaryTitle": "Adaptive Planning" },
        { "title": "Adaptive Solutions", "primaryTitle": "Adaptive Solutions" },
        { "title": "adaQuest", "primaryTitle": "adaQuest" },
        { "title": "Adayana", "primaryTitle": "Adayana" },
        { "title": "ADC Integrated Systems", "primaryTitle": "ADC Integrated Systems" },
        { "title": "Addison Search", "primaryTitle": "Addison Search" }
    ],
    "paging": {
        "total": 4846,
        "count": 100,
        "offset": 0,
        "next": "https://staging.anywhere.gooddata.com/api/v1/actions/workspaces/4dc4e033e611421791adea58d34d958c/execution/collectLabelElements?limit=100&offset=100"
    }
}
